{
  "editor.formatOnSave": true,
  "importSorter.generalConfiguration.sortOnBeforeSave": true,
  "importSorter.importStringConfiguration.maximumNumberOfImportExpressionsPerLine.type": "newLineEachExpressionAfterCountLimitExceptIfOnlyOne",
  "importSorter.importStringConfiguration.maximumNumberOfImportExpressionsPerLine.count": 100,
  "importSorter.importStringConfiguration.tabSize": 2,
  "importSorter.importStringConfiguration.trailingComma": "none",
  "importSorter.importStringConfiguration.quoteMark": "single",
  "sortConfiguration": {
    "customOrderingRules": {
      "defaultNumberOfEmptyLinesAfterGroup": 1,
      "defaultOrderLevel": 100,
      "rules": [
        {
          "type": "importMember",
          "orderLevel": 10
        },
        {
          "regex": "^react",
          "orderLevel": 15
        },
        {
          "regex": "^axios|expo|mobx",
          "orderLevel": 17
        },
        {
          "regex": "^@assets|@shared|@features|@navigations|@screen|@entities",
          "orderLevel": 30
        },
        {
          "regex": "^src",
          "orderLevel": 35
        },
        {
          "regex": "^[@]",
          "orderLevel": 20
        },
        {
          "regex": "^[.]",
          "orderLevel": 40
        }
      ]
    }
  }
}
